/*
WARNING: Do NOT edit the input and output ports in this file in a text
editor if you plan to continue editing the block that represents it in
the Block Editor! File corruption is VERY likely to occur.
*/
/*
Copyright (C) 1991-2013 Altera Corporation
Your use of Altera Corporation's design tools, logic functions 
and other software and tools, and its AMPP partner logic 
functions, and any output files from any of the foregoing 
(including device programming or simulation files), and any 
associated documentation or information are expressly subject 
to the terms and conditions of the Altera Program License 
Subscription Agreement, Altera MegaCore Function License 
Agreement, or other applicable license agreement, including, 
without limitation, that your use is for the sole purpose of 
programming logic devices manufactured by Altera and sold by 
Altera or its authorized distributors.  Please refer to the 
applicable agreement for further details.
*/
(header "graphic" (version "1.4"))
(pin
	(input)
	(rect 104 -64 272 -48)
	(text "INPUT" (rect 133 0 161 10)(font "Arial" (font_size 6)))
	(text "clock_50mhz" (rect 5 0 68 12)(font "Arial" ))
	(pt 168 8)
	(drawing
		(line (pt 92 12)(pt 117 12))
		(line (pt 92 4)(pt 117 4))
		(line (pt 121 8)(pt 168 8))
		(line (pt 92 12)(pt 92 4))
		(line (pt 117 4)(pt 121 8))
		(line (pt 117 12)(pt 121 8))
	)
	(text "VCC" (rect 136 7 156 17)(font "Arial" (font_size 6)))
	(annotation_block (location)(rect 104 -32 192 -16))
)
(pin
	(input)
	(rect 80 64 248 80)
	(text "INPUT" (rect 125 0 153 10)(font "Arial" (font_size 6)))
	(text "reset" (rect 5 0 29 12)(font "Arial" ))
	(pt 168 8)
	(drawing
		(line (pt 84 12)(pt 109 12))
		(line (pt 84 4)(pt 109 4))
		(line (pt 113 8)(pt 168 8))
		(line (pt 84 12)(pt 84 4))
		(line (pt 109 4)(pt 113 8))
		(line (pt 109 12)(pt 113 8))
	)
	(text "VCC" (rect 128 7 148 17)(font "Arial" (font_size 6)))
	(annotation_block (location)(rect 8 64 64 80))
)
(pin
	(input)
	(rect -136 440 32 456)
	(text "INPUT" (rect 125 0 153 10)(font "Arial" (font_size 6)))
	(text "enable_reset" (rect 5 0 67 12)(font "Arial" ))
	(pt 168 8)
	(drawing
		(line (pt 84 12)(pt 109 12))
		(line (pt 84 4)(pt 109 4))
		(line (pt 113 8)(pt 168 8))
		(line (pt 84 12)(pt 84 4))
		(line (pt 109 4)(pt 113 8))
		(line (pt 109 12)(pt 113 8))
	)
	(text "VCC" (rect 128 7 148 17)(font "Arial" (font_size 6)))
	(annotation_block (location)(rect -208 440 -152 456))
)
(pin
	(input)
	(rect -136 128 32 144)
	(text "INPUT" (rect 125 0 153 10)(font "Arial" (font_size 6)))
	(text "left_internal" (rect 5 0 62 12)(font "Arial" ))
	(pt 168 8)
	(drawing
		(line (pt 84 12)(pt 109 12))
		(line (pt 84 4)(pt 109 4))
		(line (pt 113 8)(pt 168 8))
		(line (pt 84 12)(pt 84 4))
		(line (pt 109 4)(pt 113 8))
		(line (pt 109 12)(pt 113 8))
	)
	(text "VCC" (rect 128 7 148 17)(font "Arial" (font_size 6)))
	(annotation_block (location)(rect -208 128 -152 144))
)
(pin
	(input)
	(rect -136 248 32 264)
	(text "INPUT" (rect 125 0 153 10)(font "Arial" (font_size 6)))
	(text "right_internal" (rect 5 0 67 12)(font "Arial" ))
	(pt 168 8)
	(drawing
		(line (pt 84 12)(pt 109 12))
		(line (pt 84 4)(pt 109 4))
		(line (pt 113 8)(pt 168 8))
		(line (pt 84 12)(pt 84 4))
		(line (pt 109 4)(pt 113 8))
		(line (pt 109 12)(pt 113 8))
	)
	(text "VCC" (rect 128 7 148 17)(font "Arial" (font_size 6)))
	(annotation_block (location)(rect -208 248 -152 264))
)
(pin
	(input)
	(rect -136 336 32 352)
	(text "INPUT" (rect 125 0 153 10)(font "Arial" (font_size 6)))
	(text "input_select" (rect 5 0 64 12)(font "Arial" ))
	(pt 168 8)
	(drawing
		(line (pt 84 12)(pt 109 12))
		(line (pt 84 4)(pt 109 4))
		(line (pt 113 8)(pt 168 8))
		(line (pt 84 12)(pt 84 4))
		(line (pt 109 4)(pt 113 8))
		(line (pt 109 12)(pt 113 8))
	)
	(text "GND" (rect 128 7 149 17)(font "Arial" (font_size 6)))
	(annotation_block (location)(rect -208 336 -152 352))
)
(pin
	(input)
	(rect -136 280 32 296)
	(text "INPUT" (rect 125 0 153 10)(font "Arial" (font_size 6)))
	(text "right_external" (rect 5 0 71 12)(font "Arial" ))
	(pt 168 8)
	(drawing
		(line (pt 84 12)(pt 109 12))
		(line (pt 84 4)(pt 109 4))
		(line (pt 113 8)(pt 168 8))
		(line (pt 84 12)(pt 84 4))
		(line (pt 109 4)(pt 113 8))
		(line (pt 109 12)(pt 113 8))
	)
	(text "GND" (rect 128 7 149 17)(font "Arial" (font_size 6)))
	(annotation_block (location)(rect -208 280 -152 296))
)
(pin
	(input)
	(rect -136 160 32 176)
	(text "INPUT" (rect 125 0 153 10)(font "Arial" (font_size 6)))
	(text "left_external" (rect 5 0 66 12)(font "Arial" ))
	(pt 168 8)
	(drawing
		(line (pt 84 12)(pt 109 12))
		(line (pt 84 4)(pt 109 4))
		(line (pt 113 8)(pt 168 8))
		(line (pt 84 12)(pt 84 4))
		(line (pt 109 4)(pt 113 8))
		(line (pt 109 12)(pt 113 8))
	)
	(text "GND" (rect 128 7 149 17)(font "Arial" (font_size 6)))
	(annotation_block (location)(rect -208 160 -152 176))
)
(pin
	(output)
	(rect 1008 232 1184 248)
	(text "OUTPUT" (rect 1 0 39 10)(font "Arial" (font_size 6)))
	(text "vga_hsync" (rect 90 0 145 12)(font "Arial" ))
	(pt 0 8)
	(drawing
		(line (pt 0 8)(pt 52 8))
		(line (pt 52 4)(pt 78 4))
		(line (pt 52 12)(pt 78 12))
		(line (pt 52 12)(pt 52 4))
		(line (pt 78 4)(pt 82 8))
		(line (pt 82 8)(pt 78 12))
		(line (pt 78 12)(pt 82 8))
	)
	(annotation_block (location)(rect 1008 208 1096 224))
)
(pin
	(output)
	(rect 1008 248 1184 264)
	(text "OUTPUT" (rect 1 0 39 10)(font "Arial" (font_size 6)))
	(text "vga_vsync" (rect 90 0 146 12)(font "Arial" ))
	(pt 0 8)
	(drawing
		(line (pt 0 8)(pt 52 8))
		(line (pt 52 4)(pt 78 4))
		(line (pt 52 12)(pt 78 12))
		(line (pt 52 12)(pt 52 4))
		(line (pt 78 4)(pt 82 8))
		(line (pt 82 8)(pt 78 12))
		(line (pt 78 12)(pt 82 8))
	)
	(annotation_block (location)(rect 1008 272 1096 288))
)
(pin
	(output)
	(rect 1096 96 1272 112)
	(text "OUTPUT" (rect 1 0 39 10)(font "Arial" (font_size 6)))
	(text "vga_r[3..0]" (rect 90 0 144 12)(font "Arial" ))
	(pt 0 8)
	(drawing
		(line (pt 0 8)(pt 52 8))
		(line (pt 52 4)(pt 78 4))
		(line (pt 52 12)(pt 78 12))
		(line (pt 52 12)(pt 52 4))
		(line (pt 78 4)(pt 82 8))
		(line (pt 82 8)(pt 78 12))
		(line (pt 78 12)(pt 82 8))
	)
	(annotation_block (location)(rect 1304 48 1400 96))
)
(pin
	(output)
	(rect 1096 112 1272 128)
	(text "OUTPUT" (rect 1 0 39 10)(font "Arial" (font_size 6)))
	(text "vga_g[3..0]" (rect 90 0 146 12)(font "Arial" ))
	(pt 0 8)
	(drawing
		(line (pt 0 8)(pt 52 8))
		(line (pt 52 4)(pt 78 4))
		(line (pt 52 12)(pt 78 12))
		(line (pt 52 12)(pt 52 4))
		(line (pt 78 4)(pt 82 8))
		(line (pt 82 8)(pt 78 12))
		(line (pt 78 12)(pt 82 8))
	)
	(annotation_block (location)(rect 1408 128 1504 176))
)
(pin
	(output)
	(rect 1096 128 1272 144)
	(text "OUTPUT" (rect 1 0 39 10)(font "Arial" (font_size 6)))
	(text "vga_b[3..0]" (rect 90 0 146 12)(font "Arial" ))
	(pt 0 8)
	(drawing
		(line (pt 0 8)(pt 52 8))
		(line (pt 52 4)(pt 78 4))
		(line (pt 52 12)(pt 78 12))
		(line (pt 52 12)(pt 52 4))
		(line (pt 78 4)(pt 82 8))
		(line (pt 82 8)(pt 78 12))
		(line (pt 78 12)(pt 82 8))
	)
	(annotation_block (location)(rect 1288 144 1384 192))
)
(pin
	(output)
	(rect 848 344 1024 360)
	(text "OUTPUT" (rect 1 0 39 10)(font "Arial" (font_size 6)))
	(text "rip_flag" (rect 90 0 126 12)(font "Arial" ))
	(pt 0 8)
	(drawing
		(line (pt 0 8)(pt 52 8))
		(line (pt 52 4)(pt 78 4))
		(line (pt 52 12)(pt 78 12))
		(line (pt 52 12)(pt 52 4))
		(line (pt 78 4)(pt 82 8))
		(line (pt 82 8)(pt 78 12))
		(line (pt 78 12)(pt 82 8))
	)
	(annotation_block (location)(rect 1040 344 1096 360))
)
(pin
	(output)
	(rect 848 376 1024 392)
	(text "OUTPUT" (rect 1 0 39 10)(font "Arial" (font_size 6)))
	(text "clk60" (rect 90 0 115 12)(font "Arial" ))
	(pt 0 8)
	(drawing
		(line (pt 0 8)(pt 52 8))
		(line (pt 52 4)(pt 78 4))
		(line (pt 52 12)(pt 78 12))
		(line (pt 52 12)(pt 52 4))
		(line (pt 78 4)(pt 82 8))
		(line (pt 82 8)(pt 78 12))
		(line (pt 78 12)(pt 82 8))
	)
	(annotation_block (location)(rect 1040 376 1096 392))
)
(pin
	(output)
	(rect 304 248 480 264)
	(text "OUTPUT" (rect 1 0 39 10)(font "Arial" (font_size 6)))
	(text "right_out" (rect 90 0 132 12)(font "Arial" ))
	(pt 0 8)
	(drawing
		(line (pt 0 8)(pt 52 8))
		(line (pt 52 4)(pt 78 4))
		(line (pt 52 12)(pt 78 12))
		(line (pt 52 12)(pt 52 4))
		(line (pt 78 4)(pt 82 8))
		(line (pt 82 8)(pt 78 12))
		(line (pt 78 12)(pt 82 8))
	)
	(annotation_block (location)(rect 456 248 512 264))
)
(pin
	(output)
	(rect 208 40 384 56)
	(text "OUTPUT" (rect 1 0 39 10)(font "Arial" (font_size 6)))
	(text "reset_out" (rect 90 0 136 12)(font "Arial" ))
	(pt 0 8)
	(drawing
		(line (pt 0 8)(pt 52 8))
		(line (pt 52 4)(pt 78 4))
		(line (pt 52 12)(pt 78 12))
		(line (pt 52 12)(pt 52 4))
		(line (pt 78 4)(pt 82 8))
		(line (pt 82 8)(pt 78 12))
		(line (pt 78 12)(pt 82 8))
	)
	(annotation_block (location)(rect 208 16 264 32))
)
(pin
	(output)
	(rect 1008 296 1184 312)
	(text "OUTPUT" (rect 1 0 39 10)(font "Arial" (font_size 6)))
	(text "vsync_led_flag" (rect 90 0 166 12)(font "Arial" ))
	(pt 0 8)
	(drawing
		(line (pt 0 8)(pt 52 8))
		(line (pt 52 4)(pt 78 4))
		(line (pt 52 12)(pt 78 12))
		(line (pt 52 12)(pt 52 4))
		(line (pt 78 4)(pt 82 8))
		(line (pt 82 8)(pt 78 12))
		(line (pt 78 12)(pt 82 8))
	)
	(annotation_block (location)(rect 1200 296 1256 312))
)
(pin
	(output)
	(rect 304 128 480 144)
	(text "OUTPUT" (rect 1 0 39 10)(font "Arial" (font_size 6)))
	(text "left_out" (rect 90 0 127 12)(font "Arial" ))
	(pt 0 8)
	(drawing
		(line (pt 0 8)(pt 52 8))
		(line (pt 52 4)(pt 78 4))
		(line (pt 52 12)(pt 78 12))
		(line (pt 52 12)(pt 52 4))
		(line (pt 78 4)(pt 82 8))
		(line (pt 82 8)(pt 78 12))
		(line (pt 78 12)(pt 82 8))
	)
	(annotation_block (location)(rect 456 128 512 144))
)
(symbol
	(rect 320 -88 480 8)
	(text "gen6mhz" (rect 5 0 48 12)(font "Arial" ))
	(text "inst1" (rect 8 80 31 92)(font "Arial" ))
	(port
		(pt 0 32)
		(input)
		(text "clk50mhz" (rect 0 0 46 12)(font "Arial" ))
		(text "clk50mhz" (rect 21 27 67 39)(font "Arial" ))
		(line (pt 0 32)(pt 16 32))
	)
	(port
		(pt 160 32)
		(output)
		(text "clk6mhz" (rect 0 0 40 12)(font "Arial" ))
		(text "clk6mhz" (rect 90 27 130 39)(font "Arial" ))
		(line (pt 160 32)(pt 144 32))
	)
	(drawing
		(rectangle (rect 16 16 144 80))
	)
)
(symbol
	(rect 904 72 1040 168)
	(text "pre_vga_dac_4" (rect 5 0 80 12)(font "Arial" ))
	(text "inst" (rect 8 80 25 92)(font "Arial" ))
	(port
		(pt 0 32)
		(input)
		(text "r" (rect 0 0 3 12)(font "Arial" ))
		(text "r" (rect 21 27 24 39)(font "Arial" ))
		(line (pt 0 32)(pt 16 32))
	)
	(port
		(pt 0 48)
		(input)
		(text "g" (rect 0 0 5 12)(font "Arial" ))
		(text "g" (rect 21 43 26 55)(font "Arial" ))
		(line (pt 0 48)(pt 16 48))
	)
	(port
		(pt 0 64)
		(input)
		(text "b" (rect 0 0 5 12)(font "Arial" ))
		(text "b" (rect 21 59 26 71)(font "Arial" ))
		(line (pt 0 64)(pt 16 64))
	)
	(port
		(pt 136 32)
		(output)
		(text "vga_r[3..0]" (rect 0 0 54 12)(font "Arial" ))
		(text "vga_r[3..0]" (rect 38 27 92 39)(font "Arial" ))
		(line (pt 136 32)(pt 120 32)(line_width 3))
	)
	(port
		(pt 136 48)
		(output)
		(text "vga_g[3..0]" (rect 0 0 56 12)(font "Arial" ))
		(text "vga_g[3..0]" (rect 38 43 94 55)(font "Arial" ))
		(line (pt 136 48)(pt 120 48)(line_width 3))
	)
	(port
		(pt 136 64)
		(output)
		(text "vga_b[3..0]" (rect 0 0 56 12)(font "Arial" ))
		(text "vga_b[3..0]" (rect 38 59 94 71)(font "Arial" ))
		(line (pt 136 64)(pt 120 64)(line_width 3))
	)
	(drawing
		(rectangle (rect 16 16 120 80))
	)
)
(symbol
	(rect 608 120 784 296)
	(text "gotygolddeluxe" (rect 5 0 79 12)(font "Arial" ))
	(text "inst2" (rect 8 160 31 172)(font "Arial" ))
	(port
		(pt 0 32)
		(input)
		(text "clk" (rect 0 0 14 12)(font "Arial" ))
		(text "clk" (rect 21 27 35 39)(font "Arial" ))
		(line (pt 0 32)(pt 16 32))
	)
	(port
		(pt 0 48)
		(input)
		(text "reset" (rect 0 0 24 12)(font "Arial" ))
		(text "reset" (rect 21 43 45 55)(font "Arial" ))
		(line (pt 0 48)(pt 16 48))
	)
	(port
		(pt 0 64)
		(input)
		(text "left" (rect 0 0 16 12)(font "Arial" ))
		(text "left" (rect 21 59 37 71)(font "Arial" ))
		(line (pt 0 64)(pt 16 64))
	)
	(port
		(pt 0 80)
		(input)
		(text "right" (rect 0 0 21 12)(font "Arial" ))
		(text "right" (rect 21 75 42 87)(font "Arial" ))
		(line (pt 0 80)(pt 16 80))
	)
	(port
		(pt 0 96)
		(input)
		(text "enable_reset" (rect 0 0 62 12)(font "Arial" ))
		(text "enable_reset" (rect 21 91 83 103)(font "Arial" ))
		(line (pt 0 96)(pt 16 96))
	)
	(port
		(pt 176 32)
		(output)
		(text "red" (rect 0 0 15 12)(font "Arial" ))
		(text "red" (rect 143 27 158 39)(font "Arial" ))
		(line (pt 176 32)(pt 160 32))
	)
	(port
		(pt 176 48)
		(output)
		(text "green" (rect 0 0 27 12)(font "Arial" ))
		(text "green" (rect 133 43 160 55)(font "Arial" ))
		(line (pt 176 48)(pt 160 48))
	)
	(port
		(pt 176 64)
		(output)
		(text "blue" (rect 0 0 20 12)(font "Arial" ))
		(text "blue" (rect 139 59 159 71)(font "Arial" ))
		(line (pt 176 64)(pt 160 64))
	)
	(port
		(pt 176 80)
		(output)
		(text "hsync" (rect 0 0 30 12)(font "Arial" ))
		(text "hsync" (rect 130 75 160 87)(font "Arial" ))
		(line (pt 176 80)(pt 160 80))
	)
	(port
		(pt 176 96)
		(output)
		(text "vsync" (rect 0 0 31 12)(font "Arial" ))
		(text "vsync" (rect 129 91 160 103)(font "Arial" ))
		(line (pt 176 96)(pt 160 96))
	)
	(port
		(pt 176 112)
		(bidir)
		(text "rip" (rect 0 0 11 12)(font "Arial" ))
		(text "rip" (rect 146 107 157 119)(font "Arial" ))
		(line (pt 176 112)(pt 160 112))
	)
	(port
		(pt 176 128)
		(bidir)
		(text "cnt" (rect 0 0 15 12)(font "Arial" ))
		(text "cnt" (rect 144 123 159 135)(font "Arial" ))
		(line (pt 176 128)(pt 160 128))
	)
	(drawing
		(rectangle (rect 16 16 160 160))
	)
)
(symbol
	(rect 160 104 272 192)
	(text "BUSMUX" (rect 28 0 91 16)(font "Arial" (font_size 10)))
	(text "inst5" (rect 3 77 26 89)(font "Arial" ))
	(port
		(pt 0 64)
		(input)
		(text "datab[WIDTH-1..0]" (rect 6 51 108 65)(font "Arial" (font_size 8)))
		(text "datab[]" (rect 6 51 44 65)(font "Arial" (font_size 8)))
		(line (pt 0 64)(pt 44 64)(line_width 3))
	)
	(port
		(pt 56 88)
		(input)
		(text "sel" (rect 59 70 75 84)(font "Arial" (font_size 8)))
		(text "sel" (rect 59 70 75 84)(font "Arial" (font_size 8)))
		(line (pt 56 88)(pt 56 72))
	)
	(port
		(pt 0 32)
		(input)
		(text "dataa[WIDTH-1..0]" (rect 6 19 108 33)(font "Arial" (font_size 8)))
		(text "dataa[]" (rect 6 19 44 33)(font "Arial" (font_size 8)))
		(line (pt 0 32)(pt 44 32)(line_width 3))
	)
	(port
		(pt 112 48)
		(output)
		(text "result[WIDTH-1..0]" (rect 75 35 177 49)(font "Arial" (font_size 8)))
		(text "result[]" (rect 75 35 113 49)(font "Arial" (font_size 8)))
		(line (pt 68 48)(pt 112 48)(line_width 3))
	)
	(parameter
		"WIDTH"
		"1"
		"Width of I/O, any integer > 0"
		" 1" " 2" " 3" " 4" " 5" " 6" " 7" " 8" " 9" "10" "11" "12" "13" "14" "15" "16" "20" "24" "28" "32" "40" "48" "56" "64" 
		(type "PARAMETER_UNSIGNED_BIN")	)
	(drawing
		(text "0" (rect 52 31 56 41)(font "Arial" (font_size 6)))
		(text "1" (rect 52 55 56 65)(font "Arial" (font_size 6)))
		(line (pt 68 64)(pt 68 32))
		(line (pt 44 80)(pt 44 16))
		(line (pt 44 16)(pt 68 32))
		(line (pt 44 80)(pt 68 64))
	)
	(annotation_block (parameter)(rect 248 168 438 196))
)
(symbol
	(rect 160 224 272 312)
	(text "BUSMUX" (rect 28 0 91 16)(font "Arial" (font_size 10)))
	(text "inst6" (rect 3 77 26 89)(font "Arial" ))
	(port
		(pt 0 64)
		(input)
		(text "datab[WIDTH-1..0]" (rect 6 51 108 65)(font "Arial" (font_size 8)))
		(text "datab[]" (rect 6 51 44 65)(font "Arial" (font_size 8)))
		(line (pt 0 64)(pt 44 64)(line_width 3))
	)
	(port
		(pt 56 88)
		(input)
		(text "sel" (rect 59 70 75 84)(font "Arial" (font_size 8)))
		(text "sel" (rect 59 70 75 84)(font "Arial" (font_size 8)))
		(line (pt 56 88)(pt 56 72))
	)
	(port
		(pt 0 32)
		(input)
		(text "dataa[WIDTH-1..0]" (rect 6 19 108 33)(font "Arial" (font_size 8)))
		(text "dataa[]" (rect 6 19 44 33)(font "Arial" (font_size 8)))
		(line (pt 0 32)(pt 44 32)(line_width 3))
	)
	(port
		(pt 112 48)
		(output)
		(text "result[WIDTH-1..0]" (rect 75 35 177 49)(font "Arial" (font_size 8)))
		(text "result[]" (rect 75 35 113 49)(font "Arial" (font_size 8)))
		(line (pt 68 48)(pt 112 48)(line_width 3))
	)
	(parameter
		"WIDTH"
		"1"
		"Width of I/O, any integer > 0"
		" 1" " 2" " 3" " 4" " 5" " 6" " 7" " 8" " 9" "10" "11" "12" "13" "14" "15" "16" "20" "24" "28" "32" "40" "48" "56" "64" 
		(type "PARAMETER_UNSIGNED_BIN")	)
	(drawing
		(text "0" (rect 52 31 56 41)(font "Arial" (font_size 6)))
		(text "1" (rect 52 55 56 65)(font "Arial" (font_size 6)))
		(line (pt 68 64)(pt 68 32))
		(line (pt 44 80)(pt 44 16))
		(line (pt 44 16)(pt 68 32))
		(line (pt 44 80)(pt 68 64))
	)
	(annotation_block (parameter)(rect 248 288 438 316))
)
(symbol
	(rect 296 432 344 464)
	(text "NOT" (rect 1 0 21 10)(font "Arial" (font_size 6)))
	(text "enable_inverter" (rect 3 21 78 33)(font "Arial" ))
	(port
		(pt 0 16)
		(input)
		(text "IN" (rect 2 7 13 19)(font "Courier New" (bold))(invisible))
		(text "IN" (rect 2 7 13 19)(font "Courier New" (bold))(invisible))
		(line (pt 0 16)(pt 13 16))
	)
	(port
		(pt 48 16)
		(output)
		(text "OUT" (rect 32 7 49 19)(font "Courier New" (bold))(invisible))
		(text "OUT" (rect 32 7 49 19)(font "Courier New" (bold))(invisible))
		(line (pt 39 16)(pt 48 16))
	)
	(drawing
		(line (pt 13 25)(pt 13 7))
		(line (pt 13 7)(pt 31 16))
		(line (pt 13 25)(pt 31 16))
		(circle (rect 31 12 39 20))
	)
)
(symbol
	(rect 72 240 120 272)
	(text "NOT" (rect 1 0 21 10)(font "Arial" (font_size 6)))
	(text "right_inverter" (rect 3 21 67 33)(font "Arial" ))
	(port
		(pt 0 16)
		(input)
		(text "IN" (rect 2 7 13 19)(font "Courier New" (bold))(invisible))
		(text "IN" (rect 2 7 13 19)(font "Courier New" (bold))(invisible))
		(line (pt 0 16)(pt 13 16))
	)
	(port
		(pt 48 16)
		(output)
		(text "OUT" (rect 32 7 49 19)(font "Courier New" (bold))(invisible))
		(text "OUT" (rect 32 7 49 19)(font "Courier New" (bold))(invisible))
		(line (pt 39 16)(pt 48 16))
	)
	(drawing
		(line (pt 13 25)(pt 13 7))
		(line (pt 13 7)(pt 31 16))
		(line (pt 13 25)(pt 31 16))
		(circle (rect 31 12 39 20))
	)
)
(symbol
	(rect 72 120 120 152)
	(text "NOT" (rect 1 0 21 10)(font "Arial" (font_size 6)))
	(text "left_inverter" (rect 3 21 63 33)(font "Arial" ))
	(port
		(pt 0 16)
		(input)
		(text "IN" (rect 2 7 13 19)(font "Courier New" (bold))(invisible))
		(text "IN" (rect 2 7 13 19)(font "Courier New" (bold))(invisible))
		(line (pt 0 16)(pt 13 16))
	)
	(port
		(pt 48 16)
		(output)
		(text "OUT" (rect 32 7 49 19)(font "Courier New" (bold))(invisible))
		(text "OUT" (rect 32 7 49 19)(font "Courier New" (bold))(invisible))
		(line (pt 39 16)(pt 48 16))
	)
	(drawing
		(line (pt 13 25)(pt 13 7))
		(line (pt 13 7)(pt 31 16))
		(line (pt 13 25)(pt 31 16))
		(circle (rect 31 12 39 20))
	)
)
(connector
	(pt 1040 136)
	(pt 1096 136)
	(bus)
)
(connector
	(pt 1040 120)
	(pt 1096 120)
	(bus)
)
(connector
	(pt 1040 104)
	(pt 1096 104)
	(bus)
)
(connector
	(pt 904 104)
	(pt 848 104)
)
(connector
	(pt 904 120)
	(pt 864 120)
)
(connector
	(pt 904 136)
	(pt 880 136)
)
(connector
	(pt 1008 240)
	(pt 840 240)
)
(connector
	(pt 1008 304)
	(pt 968 304)
)
(connector
	(pt 968 304)
	(pt 968 256)
)
(connector
	(pt 824 256)
	(pt 968 256)
)
(connector
	(pt 968 256)
	(pt 1008 256)
)
(connector
	(pt 848 384)
	(pt 792 384)
)
(connector
	(pt 792 384)
	(pt 792 248)
)
(connector
	(pt 864 120)
	(pt 864 168)
)
(connector
	(pt 880 136)
	(pt 880 184)
)
(connector
	(pt 840 240)
	(pt 840 200)
)
(connector
	(pt 824 256)
	(pt 824 216)
)
(connector
	(pt 784 168)
	(pt 864 168)
)
(connector
	(pt 784 184)
	(pt 880 184)
)
(connector
	(pt 784 200)
	(pt 840 200)
)
(connector
	(pt 848 104)
	(pt 848 152)
)
(connector
	(pt 784 152)
	(pt 848 152)
)
(connector
	(pt 600 216)
	(pt 608 216)
)
(connector
	(pt 848 352)
	(pt 816 352)
)
(connector
	(pt 776 248)
	(pt 792 248)
)
(connector
	(pt 816 232)
	(pt 816 352)
)
(connector
	(pt 784 232)
	(pt 816 232)
)
(connector
	(pt 784 216)
	(pt 824 216)
)
(connector
	(pt 272 -56)
	(pt 320 -56)
)
(connector
	(pt 480 -56)
	(pt 584 -56)
)
(connector
	(pt 584 -56)
	(pt 584 152)
)
(connector
	(pt 584 152)
	(pt 608 152)
)
(connector
	(pt 568 168)
	(pt 608 168)
)
(connector
	(pt 208 48)
	(pt 408 48)
)
(connector
	(pt 408 72)
	(pt 408 48)
)
(connector
	(pt 568 168)
	(pt 568 72)
)
(connector
	(pt 248 72)
	(pt 408 72)
)
(connector
	(pt 408 72)
	(pt 568 72)
)
(connector
	(pt 552 184)
	(pt 552 152)
	(bus)
)
(connector
	(pt 32 168)
	(pt 160 168)
	(bus)
)
(connector
	(pt 160 136)
	(pt 120 136)
	(bus)
)
(connector
	(pt 32 136)
	(pt 72 136)
	(bus)
)
(connector
	(pt 304 136)
	(pt 288 136)
)
(connector
	(pt 288 136)
	(pt 288 152)
)
(connector
	(pt 272 152)
	(pt 288 152)
	(bus)
)
(connector
	(pt 288 152)
	(pt 552 152)
	(bus)
)
(connector
	(pt 160 256)
	(pt 120 256)
	(bus)
)
(connector
	(pt 32 256)
	(pt 72 256)
)
(connector
	(pt 304 256)
	(pt 288 256)
)
(connector
	(pt 288 256)
	(pt 288 272)
)
(connector
	(pt 608 184)
	(pt 552 184)
	(bus)
)
(connector
	(pt 552 200)
	(pt 552 272)
	(bus)
)
(connector
	(pt 608 200)
	(pt 552 200)
	(bus)
)
(connector
	(pt 272 272)
	(pt 288 272)
	(bus)
)
(connector
	(pt 288 272)
	(pt 552 272)
	(bus)
)
(connector
	(pt 600 216)
	(pt 600 448)
)
(connector
	(pt 32 448)
	(pt 296 448)
)
(connector
	(pt 600 448)
	(pt 344 448)
)
(connector
	(pt 216 344)
	(pt 216 312)
)
(connector
	(pt 216 192)
	(pt 216 216)
)
(connector
	(pt 216 216)
	(pt 144 216)
)
(connector
	(pt 144 216)
	(pt 144 344)
)
(connector
	(pt 144 344)
	(pt 216 344)
)
(connector
	(pt 32 344)
	(pt 144 344)
)
(connector
	(pt 160 288)
	(pt 32 288)
)
(junction (pt 968 256))
(junction (pt 408 72))
(junction (pt 288 152))
(junction (pt 288 272))
(junction (pt 144 344))
